<svg xmlns="http://www.w3.org/2000/svg" width="32" height="26" viewBox="0 0 32 26">
    <path fill="none" stroke="#EE3E80" d="M29.25 3.815C24.787-1.638 16 1.579 16 7.117 16 1.579 7.215-1.64 2.75 3.815-1.866 9.452 2.682 19.327 16 25 29.317 19.327 33.865 9.452 29.25 3.815z"/>
</svg>
